ENPH253/DampedHarmonicOscillator/OverdampedRLCCircuit_NB.CSV

Model,TBS2102
Firmware Version,v1.26.0

Point Format,Y
Horizontal Units,S
Horizontal Scale,2e-05
Sample Interval,1.6e-08
Filter Frequency,1e+08
Record Length,20000
Gating,0.0% to 100.0%
Probe Attenuation,1
Vertical Units,V
Vertical Offset,0
Vertical Scale,0.1
Label,
TIME,CH1
-1.2619e-04,-0.51
-1.2618e-04,-0.51
-1.2616e-04,-0.51
-1.2614e-04,-0.51
-1.2613e-04,-0.51
-1.2611e-04,-0.51
-1.2610e-04,-0.51
-1.2608e-04,-0.51
-1.2606e-04,-0.51
-1.2605e-04,-0.51
-1.2603e-04,-0.51
-1.2602e-04,-0.51
-1.2600e-04,-0.51
-1.2598e-04,-0.51
-1.2597e-04,-0.51
-1.2595e-04,-0.51
-1.2594e-04,-0.51
-1.2592e-04,-0.51
-1.2590e-04,-0.51
-1.2589e-04,-0.51
-1.2587e-04,-0.51
-1.2586e-04,-0.51
-1.2584e-04,-0.51
-1.2582e-04,-0.51
-1.2581e-04,-0.51
-1.2579e-04,-0.51
-1.2578e-04,-0.51
-1.2576e-04,-0.51
-1.2574e-04,-0.51
-1.2573e-04,-0.51
-1.2571e-04,-0.51
-1.2570e-04,-0.51
-1.2568e-04,-0.51
-1.2566e-04,-0.51
-1.2565e-04,-0.51
-1.2563e-04,-0.51
-1.2562e-04,-0.51
-1.2560e-04,-0.51
-1.2558e-04,-0.51
-1.2557e-04,-0.51
-1.2555e-04,-0.51
-1.2554e-04,-0.51
-1.2552e-04,-0.51
-1.2550e-04,-0.51
-1.2549e-04,-0.51
-1.2547e-04,-0.51
-1.2546e-04,-0.51
-1.2544e-04,-0.51
-1.2542e-04,-0.51
-1.2541e-04,-0.51
-1.2539e-04,-0.51
-1.2538e-04,-0.51
-1.2536e-04,-0.51
-1.2534e-04,-0.51
-1.2533e-04,-0.51
-1.2531e-04,-0.51
-1.2530e-04,-0.51
-1.2528e-04,-0.51
-1.2526e-04,-0.51
-1.2525e-04,-0.51
-1.2523e-04,-0.51
-1.2522e-04,-0.51
-1.2520e-04,-0.51
-1.2518e-04,-0.51
-1.2517e-04,-0.51
-1.2515e-04,-0.51
-1.2514e-04,-0.51
-1.2512e-04,-0.51
-1.2510e-04,-0.51
-1.2509e-04,-0.51
-1.2507e-04,-0.51
-1.2506e-04,-0.51
-1.2504e-04,-0.51
-1.2502e-04,-0.51
-1.2501e-04,-0.51
-1.2499e-04,-0.51
-1.2498e-04,-0.51
-1.2496e-04,-0.51
-1.2494e-04,-0.51
-1.2493e-04,-0.51
-1.2491e-04,-0.51
-1.2490e-04,-0.51
-1.2488e-04,-0.51
-1.2486e-04,-0.51
-1.2485e-04,-0.51
-1.2483e-04,-0.51
-1.2482e-04,-0.51
-1.2480e-04,-0.51
-1.2478e-04,-0.51
-1.2477e-04,-0.51
-1.2475e-04,-0.51
-1.2474e-04,-0.51
-1.2472e-04,-0.51
-1.2470e-04,-0.51
-1.2469e-04,-0.51
-1.2467e-04,-0.51
-1.2466e-04,-0.51
-1.2464e-04,-0.51
-1.2462e-04,-0.51
-1.2461e-04,-0.51
-1.2459e-04,-0.51
-1.2458e-04,-0.51
-1.2456e-04,-0.51
-1.2454e-04,-0.51
-1.2453e-04,-0.51
-1.2451e-04,-0.51
-1.2450e-04,-0.51
-1.2448e-04,-0.51
-1.2446e-04,-0.51
-1.2445e-04,-0.51
-1.2443e-04,-0.51
-1.2442e-04,-0.51
-1.2440e-04,-0.51
-1.2438e-04,-0.51
-1.2437e-04,-0.51
-1.2435e-04,-0.51
-1.2434e-04,-0.51
-1.2432e-04,-0.51
-1.2430e-04,-0.51
-1.2429e-04,-0.51
-1.2427e-04,-0.51
-1.2426e-04,-0.51
-1.2424e-04,-0.51
-1.2422e-04,-0.51
-1.2421e-04,-0.51
-1.2419e-04,-0.51
-1.2418e-04,-0.51
-1.2416e-04,-0.51
-1.2414e-04,-0.51
-1.2413e-04,-0.51
-1.2411e-04,-0.51
-1.2410e-04,-0.51
-1.2408e-04,-0.51
-1.2406e-04,-0.51
-1.2405e-04,-0.51
-1.2403e-04,-0.51
-1.2402e-04,-0.51
-1.2400e-04,-0.51
-1.2398e-04,-0.51
-1.2397e-04,-0.51
-1.2395e-04,-0.51
-1.2394e-04,-0.51
-1.2392e-04,-0.51
-1.2390e-04,-0.51
-1.2389e-04,-0.51
-1.2387e-04,-0.51
-1.2386e-04,-0.51
-1.2384e-04,-0.51
-1.2382e-04,-0.51
-1.2381e-04,-0.51
-1.2379e-04,-0.51
-1.2378e-04,-0.51
-1.2376e-04,-0.51
-1.2374e-04,-0.51
-1.2373e-04,-0.51
-1.2371e-04,-0.51
-1.2370e-04,-0.51
-1.2368e-04,-0.51
-1.2366e-04,-0.51
-1.2365e-04,-0.51
-1.2363e-04,-0.51
-1.2362e-04,-0.51
-1.2360e-04,-0.51
-1.2358e-04,-0.51
-1.2357e-04,-0.51
-1.2355e-04,-0.51
-1.2354e-04,-0.51
-1.2352e-04,-0.51
-1.2350e-04,-0.51
-1.2349e-04,-0.51
-1.2347e-04,-0.51
-1.2346e-04,-0.51
-1.2344e-04,-0.51
-1.2342e-04,-0.51
-1.2341e-04,-0.51
-1.2339e-04,-0.51
-1.2338e-04,-0.51
-1.2336e-04,-0.51
-1.2334e-04,-0.51
-1.2333e-04,-0.51
-1.2331e-04,-0.51
-1.2330e-04,-0.51
-1.2328e-04,-0.51
-1.2326e-04,-0.51
-1.2325e-04,-0.51
-1.2323e-04,-0.51
-1.2322e-04,-0.51
-1.2320e-04,-0.51
-1.2318e-04,-0.51
-1.2317e-04,-0.51
-1.2315e-04,-0.51
-1.2314e-04,-0.51
-1.2312e-04,-0.51
-1.2310e-04,-0.51
-1.2309e-04,-0.51
-1.2307e-04,-0.51
-1.2306e-04,-0.51
-1.2304e-04,-0.51
-1.2302e-04,-0.51
-1.2301e-04,-0.51
-1.2299e-04,-0.51
-1.2298e-04,-0.51
-1.2296e-04,-0.51
-1.2294e-04,-0.51
-1.2293e-04,-0.51
-1.2291e-04,-0.51
-1.2290e-04,-0.51
-1.2288e-04,-0.51
-1.2286e-04,-0.51
-1.2285e-04,-0.51
-1.2283e-04,-0.51
-1.2282e-04,-0.51
-1.2280e-04,-0.51
-1.2278e-04,-0.51
-1.2277e-04,-0.51
-1.2275e-04,-0.51
-1.2274e-04,-0.51
-1.2272e-04,-0.51
-1.2270e-04,-0.51
-1.2269e-04,-0.51
-1.2267e-04,-0.51
-1.2266e-04,-0.51
-1.2264e-04,-0.51
-1.2262e-04,-0.51
-1.2261e-04,-0.51
-1.2259e-04,-0.51
-1.2258e-04,-0.51
-1.2256e-04,-0.51
-1.2254e-04,-0.51
-1.2253e-04,-0.51
-1.2251e-04,-0.51
-1.2250e-04,-0.51
-1.2248e-04,-0.51
-1.2246e-04,-0.51
-1.2245e-04,-0.51
-1.2243e-04,-0.51
-1.2242e-04,-0.51
-1.2240e-04,-0.51
-1.2238e-04,-0.51
-1.2237e-04,-0.51
-1.2235e-04,-0.51
-1.2234e-04,-0.51
-1.2232e-04,-0.51
-1.2230e-04,-0.51
-1.2229e-04,-0.51
-1.2227e-04,-0.51
-1.2226e-04,-0.51
-1.2224e-04,-0.51
-1.2222e-04,-0.51
-1.2221e-04,-0.51
-1.2219e-04,-0.51
-1.2218e-04,-0.51
-1.2216e-04,-0.51
-1.2214e-04,-0.51
-1.2213e-04,-0.51
-1.2211e-04,-0.51
-1.2210e-04,-0.51
-1.2208e-04,-0.51
-1.2206e-04,-0.51
-1.2205e-04,-0.51
-1.2203e-04,-0.51
-1.2202e-04,-0.51
-1.2200e-04,-0.51
-1.2198e-04,-0.51
-1.2197e-04,-0.51
-1.2195e-04,-0.51
-1.2194e-04,-0.51
-1.2192e-04,-0.51
-1.2190e-04,-0.51
-1.2189e-04,-0.51
-1.2187e-04,-0.51
-1.2186e-04,-0.51
-1.2184e-04,-0.51
-1.2182e-04,-0.51
-1.2181e-04,-0.51
-1.2179e-04,-0.51
-1.2178e-04,-0.51
-1.2176e-04,-0.51
-1.2174e-04,-0.51
-1.2173e-04,-0.51
-1.2171e-04,-0.51
-1.2170e-04,-0.51
-1.2168e-04,-0.51
-1.2166e-04,-0.51
-1.2165e-04,-0.51
-1.2163e-04,-0.51
-1.2162e-04,-0.51
-1.2160e-04,-0.51
-1.2158e-04,-0.51
-1.2157e-04,-0.51
-1.2155e-04,-0.51
-1.2154e-04,-0.51
-1.2152e-04,-0.51
-1.2150e-04,-0.51
-1.2149e-04,-0.51
-1.2147e-04,-0.51
-1.2146e-04,-0.51
-1.2144e-04,-0.51
-1.2142e-04,-0.51
-1.2141e-04,-0.51
-1.2139e-04,-0.51
-1.2138e-04,-0.51
-1.2136e-04,-0.51
-1.2134e-04,-0.51
-1.2133e-04,-0.51
-1.2131e-04,-0.51
-1.2130e-04,-0.51
-1.2128e-04,-0.51
-1.2126e-04,-0.51
-1.2125e-04,-0.51
-1.2123e-04,-0.51
-1.2122e-04,-0.51
-1.2120e-04,-0.51
-1.2118e-04,-0.51
-1.2117e-04,-0.51
-1.2115e-04,-0.51
-1.2114e-04,-0.51
-1.2112e-04,-0.51
-1.2110e-04,-0.51
-1.2109e-04,-0.51
-1.2107e-04,-0.51
-1.2106e-04,-0.51
-1.2104e-04,-0.51
-1.2102e-04,-0.51
-1.2101e-04,-0.51
-1.2099e-04,-0.51
-1.2098e-04,-0.51
-1.2096e-04,-0.51
-1.2094e-04,-0.51
-1.2093e-04,-0.51
-1.2091e-04,-0.51
-1.2090e-04,-0.51
-1.2088e-04,-0.51
-1.2086e-04,-0.51
-1.2085e-04,-0.51
-1.2083e-04,-0.51
-1.2082e-04,-0.51
-1.2080e-04,-0.51
-1.2078e-04,-0.51
-1.2077e-04,-0.51
-1.2075e-04,-0.51
-1.2074e-04,-0.51
-1.2072e-04,-0.51
-1.2070e-04,-0.51
-1.2069e-04,-0.51
-1.2067e-04,-0.51
-1.2066e-04,-0.51
-1.2064e-04,-0.51
-1.2062e-04,-0.51
-1.2061e-04,-0.51
-1.2059e-04,-0.51
-1.2058e-04,-0.51
-1.2056e-04,-0.51
-1.2054e-04,-0.51
-1.2053e-04,-0.51
-1.2051e-04,-0.51
-1.2050e-04,-0.51
-1.2048e-04,-0.51
-1.2046e-04,-0.51
-1.2045e-04,-0.51
-1.2043e-04,-0.51
-1.2042e-04,-0.51
-1.2040e-04,-0.51
-1.2038e-04,-0.51
-1.2037e-04,-0.51
-1.2035e-04,-0.51
-1.2034e-04,-0.51
-1.2032e-04,-0.51
-1.2030e-04,-0.51
-1.2029e-04,-0.51
-1.2027e-04,-0.51
-1.2026e-04,-0.51
-1.2024e-04,-0.51
-1.2022e-04,-0.51
-1.2021e-04,-0.51
-1.2019e-04,-0.51
-1.2018e-04,-0.51
-1.2016e-04,-0.51
-1.2014e-04,-0.51
-1.2013e-04,-0.51
-1.2011e-04,-0.51
-1.2010e-04,-0.51
-1.2008e-04,-0.51
-1.2006e-04,-0.51
-1.2005e-04,-0.51
-1.2003e-04,-0.51
-1.2002e-04,-0.51
-1.2000e-04,-0.51
-1.1998e-04,-0.51
-1.1997e-04,-0.51
-1.1995e-04,-0.51
-1.1994e-04,-0.51
-1.1992e-04,-0.51
-1.1990e-04,-0.51
-1.1989e-04,-0.51
-1.1987e-04,-0.51
-1.1986e-04,-0.51
-1.1984e-04,-0.51
-1.1982e-04,-0.51
-1.1981e-04,-0.51
-1.1979e-04,-0.51
-1.1978e-04,-0.51
-1.1976e-04,-0.51
-1.1974e-04,-0.51
-1.1973e-04,-0.51
-1.1971e-04,-0.51
-1.1970e-04,-0.51
-1.1968e-04,-0.51
-1.1966e-04,-0.51
-1.1965e-04,-0.51
-1.1963e-04,-0.51
-1.1962e-04,-0.51
-1.1960e-04,-0.51
-1.1958e-04,-0.51
-1.1957e-04,-0.51
-1.1955e-04,-0.51
-1.1954e-04,-0.51
-1.1952e-04,-0.51
-1.1950e-04,-0.51
-1.1949e-04,-0.51
-1.1947e-04,-0.51
-1.1946e-04,-0.51
-1.1944e-04,-0.51
-1.1942e-04,-0.51
-1.1941e-04,-0.51
-1.1939e-04,-0.505
-1.1938e-04,-0.51
-1.1936e-04,-0.51
-1.1934e-04,-0.51
-1.1933e-04,-0.51
-1.1931e-04,-0.51
-1.1930e-04,-0.51
-1.1928e-04,-0.51
-1.1926e-04,-0.51
-1.1925e-04,-0.51
-1.1923e-04,-0.505
-1.1922e-04,-0.51
-1.1920e-04,-0.51
-1.1918e-04,-0.505
-1.1917e-04,-0.51
-1.1915e-04,-0.505
-1.1914e-04,-0.51
-1.1912e-04,-0.505
-1.1910e-04,-0.51
-1.1909e-04,-0.505
-1.1907e-04,-0.505
-1.1906e-04,-0.505
-1.1904e-04,-0.51
-1.1902e-04,-0.505
-1.1901e-04,-0.5
-1.1899e-04,-0.51
-1.1898e-04,-0.495
-1.1896e-04,-0.51
-1.1894e-04,-0.505
-1.1893e-04,-0.505
-1.1891e-04,-0.5
-1.1890e-04,-0.505
-1.1888e-04,-0.5
-1.1886e-04,-0.5
-1.1885e-04,-0.505
-1.1883e-04,-0.5
-1.1882e-04,-0.5
-1.1880e-04,-0.5
-1.1878e-04,-0.505
-1.1877e-04,-0.495
-1.1875e-04,-0.5
-1.1874e-04,-0.5
-1.1872e-04,-0.5
-1.1870e-04,-0.495
-1.1869e-04,-0.5
-1.1867e-04,-0.495
-1.1866e-04,-0.495
-1.1864e-04,-0.5
-1.1862e-04,-0.495
-1.1861e-04,-0.5
-1.1859e-04,-0.495
-1.1858e-04,-0.505
-1.1856e-04,-0.49
-1.1854e-04,-0.5
-1.1853e-04,-0.495
-1.1851e-04,-0.495
-1.1850e-04,-0.495
-1.1848e-04,-0.5
-1.1846e-04,-0.49
-1.1845e-04,-0.49
-1.1843e-04,-0.5
-1.1842e-04,-0.495
-1.1840e-04,-0.495
-1.1838e-04,-0.49
-1.1837e-04,-0.495
-1.1835e-04,-0.49
-1.1834e-04,-0.495
-1.1832e-04,-0.495
-1.1830e-04,-0.49
-1.1829e-04,-0.49
-1.1827e-04,-0.49
-1.1826e-04,-0.49
-1.1824e-04,-0.485
-1.1822e-04,-0.495
-1.1821e-04,-0.49
-1.1819e-04,-0.49
-1.1818e-04,-0.485
-1.1816e-04,-0.495
-1.1814e-04,-0.485
-1.1813e-04,-0.49
-1.1811e-04,-0.495
-1.1810e-04,-0.485
-1.1808e-04,-0.49
-1.1806e-04,-0.49
-1.1805e-04,-0.485
-1.1803e-04,-0.485
-1.1802e-04,-0.495
-1.1800e-04,-0.485
-1.1798e-04,-0.485
-1.1797e-04,-0.485
-1.1795e-04,-0.49
-1.1794e-04,-0.48
-1.1792e-04,-0.49
-1.1790e-04,-0.485
-1.1789e-04,-0.48
-1.1787e-04,-0.49
-1.1786e-04,-0.485
-1.1784e-04,-0.485
-1.1782e-04,-0.48
-1.1781e-04,-0.49
-1.1779e-04,-0.48
-1.1778e-04,-0.485
-1.1776e-04,-0.48
-1.1774e-04,-0.485
-1.1773e-04,-0.485
-1.1771e-04,-0.485
-1.1770e-04,-0.485
-1.1768e-04,-0.48
-1.1766e-04,-0.485
-1.1765e-04,-0.485
-1.1763e-04,-0.48
-1.1762e-04,-0.475
-1.1760e-04,-0.485
-1.1758e-04,-0.475
-1.1757e-04,-0.485
-1.1755e-04,-0.475
-1.1754e-04,-0.48
-1.1752e-04,-0.475
-1.1750e-04,-0.48
-1.1749e-04,-0.48
-1.1747e-04,-0.475
-1.1746e-04,-0.48
-1.1744e-04,-0.475
-1.1742e-04,-0.48
-1.1741e-04,-0.47
-1.1739e-04,-0.485
-1.1738e-04,-0.475
-1.1736e-04,-0.475
-1.1734e-04,-0.48
-1.1733e-04,-0.475
-1.1731e-04,-0.475
-1.1730e-04,-0.475
-1.1728e-04,-0.475
-1.1726e-04,-0.47
-1.1725e-04,-0.48
-1.1723e-04,-0.47
-1.1722e-04,-0.47
-1.1720e-04,-0.47
-1.1718e-04,-0.48
-1.1717e-04,-0.47
-1.1715e-04,-0.475
-1.1714e-04,-0.47
-1.1712e-04,-0.475
-1.1710e-04,-0.47
-1.1709e-04,-0.475
-1.1707e-04,-0.475
-1.1706e-04,-0.465
-1.1704e-04,-0.48
-1.1702e-04,-0.47
-1.1701e-04,-0.47
-1.1699e-04,-0.465
-1.1698e-04,-0.47
-1.1696e-04,-0.465
-1.1694e-04,-0.465
-1.1693e-04,-0.475
-1.1691e-04,-0.47
-1.1690e-04,-0.47
-1.1688e-04,-0.47
-1.1686e-04,-0.465
-1.1685e-04,-0.46
-1.1683e-04,-0.475
-1.1682e-04,-0.47
-1.1680e-04,-0.47
-1.1678e-04,-0.465
-1.1677e-04,-0.47
-1.1675e-04,-0.46
-1.1674e-04,-0.465
-1.1672e-04,-0.47
-1.1670e-04,-0.46
-1.1669e-04,-0.465
-1.1667e-04,-0.46
-1.1666e-04,-0.47
-1.1664e-04,-0.455
-1.1662e-04,-0.47
-1.1661e-04,-0.465
-1.1659e-04,-0.46
-1.1658e-04,-0.465
-1.1656e-04,-0.465
-1.1654e-04,-0.455
-1.1653e-04,-0.465
-1.1651e-04,-0.465
-1.1650e-04,-0.455
-1.1648e-04,-0.46
-1.1646e-04,-0.465
-1.1645e-04,-0.46
-1.1643e-04,-0.45
-1.1642e-04,-0.465
-1.1640e-04,-0.455
-1.1638e-04,-0.46
-1.1637e-04,-0.46
-1.1635e-04,-0.46
-1.1634e-04,-0.46
-1.1632e-04,-0.455
-1.1630e-04,-0.465
-1.1629e-04,-0.45
-1.1627e-04,-0.46
-1.1626e-04,-0.455
-1.1624e-04,-0.46
-1.1622e-04,-0.455
-1.1621e-04,-0.465
-1.1619e-04,-0.435
-1.1618e-04,-0.475
-1.1616e-04,-0.425
-1.1614e-04,-0.48
-1.1613e-04,-0.43
-1.1611e-04,-0.47
-1.1610e-04,-0.445
-1.1608e-04,-0.455
-1.1606e-04,-0.45
-1.1605e-04,-0.455
-1.1603e-04,-0.46
-1.1602e-04,-0.445
-1.1600e-04,-0.465
-1.1598e-04,-0.445
-1.1597e-04,-0.455
-1.1595e-04,-0.45
-1.1594e-04,-0.455
-1.1592e-04,-0.45
-1.1590e-04,-0.45
-1.1589e-04,-0.455
-1.1587e-04,-0.445
-1.1586e-04,-0.455
-1.1584e-04,-0.45
-1.1582e-04,-0.455
-1.1581e-04,-0.445
-1.1579e-04,-0.45
-1.1578e-04,-0.45
-1.1576e-04,-0.445
-1.1574e-04,-0.45
-1.1573e-04,-0.445
-1.1571e-04,-0.445
-1.1570e-04,-0.445
-1.1568e-04,-0.45
-1.1566e-04,-0.435
-1.1565e-04,-0.45
-1.1563e-04,-0.445
-1.1562e-04,-0.45
-1.1560e-04,-0.44
-1.1558e-04,-0.445
-1.1557e-04,-0.445
-1.1555e-04,-0.445
-1.1554e-04,-0.45
-1.1552e-04,-0.445
-1.1550e-04,-0.44
-1.1549e-04,-0.445
-1.1547e-04,-0.45
-1.1546e-04,-0.44
-1.1544e-04,-0.445
-1.1542e-04,-0.44
-1.1541e-04,-0.44
-1.1539e-04,-0.44
-1.1538e-04,-0.445
-1.1536e-04,-0.44
-1.1534e-04,-0.44
-1.1533e-04,-0.445
-1.1531e-04,-0.44
-1.1530e-04,-0.44
-1.1528e-04,-0.435
-1.1526e-04,-0.445
-1.1525e-04,-0.435
-1.1523e-04,-0.44
-1.1522e-04,-0.44
-1.1520e-04,-0.435
-1.1518e-04,-0.435
-1.1517e-04,-0.435
-1.1515e-04,-0.435
-1.1514e-04,-0.435
-1.1512e-04,-0.44
-1.1510e-04,-0.435
-1.1509e-04,-0.435
-1.1507e-04,-0.435
-1.1506e-04,-0.435
-1.1504e-04,-0.425
-1.1502e-04,-0.44
-1.1501e-04,-0.44
-1.1499e-04,-0.435
-1.1498e-04,-0.43
-1.1496e-04,-0.44
-1.1494e-04,-0.435
-1.1493e-04,-0.435
-1.1491e-04,-0.435
-1.1490e-04,-0.43
-1.1488e-04,-0.435
-1.1486e-04,-0.435
-1.1485e-04,-0.435
-1.1483e-04,-0.425
-1.1482e-04,-0.435
-1.1480e-04,-0.435
-1.1478e-04,-0.43
-1.1477e-04,-0.43
-1.1475e-04,-0.43
-1.1474e-04,-0.435
-1.1472e-04,-0.425
-1.1470e-04,-0.435
-1.1469e-04,-0.425
-1.1467e-04,-0.43
-1.1466e-04,-0.43
-1.1464e-04,-0.43
-1.1462e-04,-0.425
-1.1461e-04,-0.43
-1.1459e-04,-0.43
-1.1458e-04,-0.425
-1.1456e-04,-0.43
-1.1454e-04,-0.43
-1.1453e-04,-0.425
-1.1451e-04,-0.42
-1.1450e-04,-0.435
-1.1448e-04,-0.425
-1.1446e-04,-0.425
-1.1445e-04,-0.425
-1.1443e-04,-0.43
-1.1442e-04,-0.425
-1.1440e-04,-0.43
-1.1438e-04,-0.425
-1.1437e-04,-0.42
-1.1435e-04,-0.43
-1.1434e-04,-0.425
-1.1432e-04,-0.42
-1.1430e-04,-0.425
-1.1429e-04,-0.425
-1.1427e-04,-0.42
-1.1426e-04,-0.425
-1.1424e-04,-0.425
-1.1422e-04,-0.425
-1.1421e-04,-0.42
-1.1419e-04,-0.42
-1.1418e-04,-0.425
-1.1416e-04,-0.42
-1.1414e-04,-0.43
-1.1413e-04,-0.42
-1.1411e-04,-0.42
-1.1410e-04,-0.415
-1.1408e-04,-0.425
-1.1406e-04,-0.415
-1.1405e-04,-0.42
-1.1403e-04,-0.415
-1.1402e-04,-0.415
-1.1400e-04,-0.415
-1.1398e-04,-0.415
-1.1397e-04,-0.42
-1.1395e-04,-0.415
-1.1394e-04,-0.42
-1.1392e-04,-0.415
-1.1390e-04,-0.42
-1.1389e-04,-0.415
-1.1387e-04,-0.415
-1.1386e-04,-0.415
-1.1384e-04,-0.42
-1.1382e-04,-0.415
-1.1381e-04,-0.415
-1.1379e-04,-0.415
-1.1378e-04,-0.415
-1.1376e-04,-0.415
-1.1374e-04,-0.41
-1.1373e-04,-0.42
-1.1371e-04,-0.415
-1.1370e-04,-0.415
-1.1368e-04,-0.41
-1.1366e-04,-0.415
-1.1365e-04,-0.405
-1.1363e-04,-0.415
-1.1362e-04,-0.415
-1.1360e-04,-0.41
-1.1358e-04,-0.41
-1.1357e-04,-0.41
-1.1355e-04,-0.41
-1.1354e-04,-0.4
-1.1352e-04,-0.41
-1.1350e-04,-0.415
-1.1349e-04,-0.405
-1.1347e-04,-0.415
-1.1346e-04,-0.415
-1.1344e-04,-0.4
-1.1342e-04,-0.42
-1.1341e-04,-0.41
-1.1339e-04,-0.4
-1.1338e-04,-0.405
-1.1336e-04,-0.4
-1.1334e-04,-0.415
-1.1333e-04,-0.4
-1.1331e-04,-0.42
-1.1330e-04,-0.405
-1.1328e-04,-0.4
-1.1326e-04,-0.41
-1.1325e-04,-0.405
-1.1323e-04,-0.41
-1.1322e-04,-0.4
-1.1320e-04,-0.415
-1.1318e-04,-0.395
-1.1317e-04,-0.405
-1.1315e-04,-0.4
-1.1314e-04,-0.41
-1.1312e-04,-0.4
-1.1310e-04,-0.41
-1.1309e-04,-0.4
-1.1307e-04,-0.405
-1.1306e-04,-0.405
-1.1304e-04,-0.405
-1.1302e-04,-0.4
-1.1301e-04,-0.4
-1.1299e-04,-0.405
-1.1298e-04,-0.395
-1.1296e-04,-0.4
-1.1294e-04,-0.4
-1.1293e-04,-0.405
-1.1291e-04,-0.395
-1.1290e-04,-0.405
-1.1288e-04,-0.395
-1.1286e-04,-0.4
-1.1285e-04,-0.4
-1.1283e-04,-0.4
-1.1282e-04,-0.4
-1.1280e-04,-0.4
-1.1278e-04,-0.4
-1.1277e-04,-0.395
-1.1275e-04,-0.4
-1.1274e-04,-0.4
-1.1272e-04,-0.395
-1.1270e-04,-0.39
-1.1269e-04,-0.4
-1.1267e-04,-0.39
-1.1266e-04,-0.395
-1.1264e-04,-0.395
-1.1262e-04,-0.4
-1.1261e-04,-0.39
-1.1259e-04,-0.395
-1.1258e-04,-0.4
-1.1256e-04,-0.39
-1.1254e-04,-0.4
-1.1253e-04,-0.395
-1.1251e-04,-0.395
-1.1250e-04,-0.39
-1.1248e-04,-0.395
-1.1246e-04,-0.395
-1.1245e-04,-0.39
-1.1243e-04,-0.4
-1.1242e-04,-0.39
-1.1240e-04,-0.395
-1.1238e-04,-0.395
-1.1237e-04,-0.395
-1.1235e-04,-0.385
-1.1234e-04,-0.39
-1.1232e-04,-0.39
-1.1230e-04,-0.39
-1.1229e-04,-0.385
-1.1227e-04,-0.395
-1.1226e-04,-0.385
-1.1224e-04,-0.385
-1.1222e-04,-0.39
-1.1221e-04,-0.39
-1.1219e-04,-0.39
-1.1218e-04,-0.385
-1.1216e-04,-0.395
-1.1214e-04,-0.38
-1.1213e-04,-0.39
-1.1211e-04,-0.385
-1.1210e-04,-0.39
-1.1208e-04,-0.385
-1.1206e-04,-0.39
-1.1205e-04,-0.385
-1.1203e-04,-0.385
-1.1202e-04,-0.39
-1.1200e-04,-0.385
-1.1198e-04,-0.385
-1.1197e-04,-0.385
-1.1195e-04,-0.39
-1.1194e-04,-0.38
-1.1192e-04,-0.39
-1.1190e-04,-0.385
-1.1189e-04,-0.38
-1.1187e-04,-0.385
-1.1186e-04,-0.385
-1.1184e-04,-0.38
-1.1182e-04,-0.385
-1.1181e-04,-0.39
-1.1179e-04,-0.38
-1.1178e-04,-0.39
-1.1176e-04,-0.38
-1.1174e-04,-0.385
-1.1173e-04,-0.375
-1.1171e-04,-0.385
-1.1170e-04,-0.38
-1.1168e-04,-0.38
-1.1166e-04,-0.385
-1.1165e-04,-0.38
-1.1163e-04,-0.375
-1.1162e-04,-0.38
-1.1160e-04,-0.385
-1.1158e-04,-0.375
-1.1157e-04,-0.375
-1.1155e-04,-0.38
-1.1154e-04,-0.385
-1.1152e-04,-0.375
-1.1150e-04,-0.38
-1.1149e-04,-0.375
-1.1147e-04,-0.375
-1.1146e-04,-0.375
-1.1144e-04,-0.38
-1.1142e-04,-0.38
-1.1141e-04,-0.375
-1.1139e-04,-0.385
-1.1138e-04,-0.37
-1.1136e-04,-0.385
-1.1134e-04,-0.375
-1.1133e-04,-0.375
-1.1131e-04,-0.37
-1.1130e-04,-0.38
-1.1128e-04,-0.375
-1.1126e-04,-0.37
-1.1125e-04,-0.375
-1.1123e-04,-0.375
-1.1122e-04,-0.375
-1.1120e-04,-0.37
-1.1118e-04,-0.38
-1.1117e-04,-0.365
-1.1115e-04,-0.38
-1.1114e-04,-0.37
-1.1112e-04,-0.37
-1.1110e-04,-0.365
-1.1109e-04,-0.37
-1.1107e-04,-0.375
-1.1106e-04,-0.365
-1.1104e-04,-0.38
-1.1102e-04,-0.37
-1.1101e-04,-0.375
-1.1099e-04,-0.365
-1.1098e-04,-0.38
-1.1096e-04,-0.36
-1.1094e-04,-0.37
-1.1093e-04,-0.37
-1.1091e-04,-0.37
-1.1090e-04,-0.37
-1.1088e-04,-0.37
-1.1086e-04,-0.37
-1.1085e-04,-0.365
-1.1083e-04,-0.37
-1.1082e-04,-0.36
-1.1080e-04,-0.365
-1.1078e-04,-0.37
-1.1077e-04,-0.37
-1.1075e-04,-0.365
-1.1074e-04,-0.37
-1.1072e-04,-0.365
-1.1070e-04,-0.365
-1.1069e-04,-0.36
-1.1067e-04,-0.37
-1.1066e-04,-0.365
-1.1064e-04,-0.36
-1.1062e-04,-0.37
-1.1061e-04,-0.36
-1.1059e-04,-0.365
-1.1058e-04,-0.36
-1.1056e-04,-0.37
-1.1054e-04,-0.36
-1.1053e-04,-0.37
-1.1051e-04,-0.365
-1.1050e-04,-0.36
-1.1048e-04,-0.36
-1.1046e-04,-0.365
-1.1045e-04,-0.36
-1.1043e-04,-0.36
-1.1042e-04,-0.365
-1.1040e-04,-0.36
-1.1038e-04,-0.36
-1.1037e-04,-0.36
-1.1035e-04,-0.365
-1.1034e-04,-0.355
-1.1032e-04,-0.365
-1.1030e-04,-0.355
-1.1029e-04,-0.36
-1.1027e-04,-0.355
-1.1026e-04,-0.36
-1.1024e-04,-0.355
-1.1022e-04,-0.355
-1.1021e-04,-0.365
-1.1019e-04,-0.35
-1.1018e-04,-0.36
-1.1016e-04,-0.355
-1.1014e-04,-0.36
-1.1013e-04,-0.355
-1.1011e-04,-0.355
-1.1010e-04,-0.36
-1.1008e-04,-0.35
-1.1006e-04,-0.355
-1.1005e-04,-0.36
-1.1003e-04,-0.35
-1.1002e-04,-0.35
-1.1000e-04,-0.355
-1.0998e-04,-0.35
-1.0997e-04,-0.36
-1.0995e-04,-0.35
-1.0994e-04,-0.355
-1.0992e-04,-0.345
-1.0990e-04,-0.36
-1.0989e-04,-0.35
-1.0987e-04,-0.35
-1.0986e-04,-0.35
-1.0984e-04,-0.35
-1.0982e-04,-0.35
-1.0981e-04,-0.35
-1.0979e-04,-0.36
-1.0978e-04,-0.345
-1.0976e-04,-0.35
-1.0974e-04,-0.35
-1.0973e-04,-0.355
-1.0971e-04,-0.345
-1.0970e-04,-0.35
-1.0968e-04,-0.35
-1.0966e-04,-0.345
-1.0965e-04,-0.35
-1.0963e-04,-0.35
-1.0962e-04,-0.345
-1.0960e-04,-0.35
-1.0958e-04,-0.35
-1.0957e-04,-0.34
-1.0955e-04,-0.35
-1.0954e-04,-0.345
-1.0952e-04,-0.35
-1.0950e-04,-0.345
-1.0949e-04,-0.35
-1.0947e-04,-0.35
-1.0946e-04,-0.34
-1.0944e-04,-0.35
-1.0942e-04,-0.345
-1.0941e-04,-0.35
-1.0939e-04,-0.345
-1.0938e-04,-0.345
-1.0936e-04,-0.34
-1.0934e-04,-0.345
-1.0933e-04,-0.34
-1.0931e-04,-0.35
-1.0930e-04,-0.345
-1.0928e-04,-0.345
-1.0926e-04,-0.34
-1.0925e-04,-0.345
-1.0923e-04,-0.345
-1.0922e-04,-0.345
-1.0920e-04,-0.34
-1.0918e-04,-0.34
-1.0917e-04,-0.35
-1.0915e-04,-0.335
-1.0914e-04,-0.345
-1.0912e-04,-0.34
-1.0910e-04,-0.34
-1.0909e-04,-0.34
-1.0907e-04,-0.34
-1.0906e-04,-0.34
-1.0904e-04,-0.335
-1.0902e-04,-0.345
-1.0901e-04,-0.335
-1.0899e-04,-0.34
-1.0898e-04,-0.34
-1.0896e-04,-0.34
-1.0894e-04,-0.335
-1.0893e-04,-0.34
